{
  "pieces": {
    "folia": {
      "bpm": 113.18,
      "composer": "LullyBye",
      "continuo": [
        {
          "bucketURL": "gs://talenschool-composer-fee59.appspot.com/folia",
          "evenBarsAudioFileName": "clavecin.mp3",
          "instrumentName": "Clavecin",
          "numberOfLoops": 1,
          "oddBarsAudioFileName": "clavecin.mp3"
        },
        {
          "bucketURL": "gs://talenschool-composer-fee59.appspot.com/folia",
          "evenBarsAudioFileName": "cello_pair.mp3",
          "instrumentName": "Violoncelle",
          "numberOfLoops": 3,
          "oddBarsAudioFileName": "cello_impair.mp3"
        },
        {
          "bucketURL": "gs://talenschool-composer-fee59.appspot.com/folia",
          "evenBarsAudioFileName": "basse_pair.mp3",
          "instrumentName": "Contrebasse",
          "numberOfLoops": 3,
          "oddBarsAudioFileName": "basse_impair.mp3"
        },
        {
          "bucketURL": "gs://talenschool-composer-fee59.appspot.com/folia",
          "evenBarsAudioFileName": "theorbe_pair.mp3",
          "instrumentName": "Théorbe",
          "numberOfLoops": 3,
          "oddBarsAudioFileName": "theorbe_impair.mp3"
        }
      ],
      "numberOfBarsInLoop": 16,
      "solo": {
        "bucketURL": "gs://talenschool-composer-fee59.appspot.com/folia",
        "evenBarsAudioFileName": "violon_pair.mp3",
        "instrumentName": "Violon",
        "numberOfLoops": 11,
        "oddBarsAudioFileName": "violon_impair.mp3"
      },
      "subtitle": "Folies d'Espagne",
      "timeSignatureDenominator": 4,
      "timeSignatureNumerator": 3,
      "title": "Folia"
    },
    "beats": {
      "bpm": 120,
      "composer": "DJ Stiff",
      "continuo": [
        {
          "bucketURL": "gs://talenschool-composer-fee59.appspot.com/beats",
          "evenBarsAudioFileName": "dolak_pair.mp3",
          "instrumentName": "Dolak",
          "numberOfLoops": 3,
          "oddBarsAudioFileName": "dolak_impair.mp3"
        },
        {
          "bucketURL": "gs://talenschool-composer-fee59.appspot.com/beats",
          "evenBarsAudioFileName": "conga_pair.mp3",
          "instrumentName": "Conga",
          "numberOfLoops": 3,
          "oddBarsAudioFileName": "conga_impair.mp3"
        }
      ],
      "numberOfBarsInLoop": 8,
      "solo": {
        "bucketURL": "gs://talenschool-composer-fee59.appspot.com/beats",
        "evenBarsAudioFileName": "drums_pair.mp3",
        "instrumentName": "Violon",
        "numberOfLoops": 3,
        "oddBarsAudioFileName": "drums_impair.mp3"
      },
      "subtitle": "volume 1",
      "timeSignatureDenominator": 4,
      "timeSignatureNumerator": 4,
      "title": "Dr. Beats"
    }
  },
  "classes": {
    "123456343434": {
      "schoolName": "Balzac",
      "ownerID": "rfHDBo82LialPEy4Uq61dHRMOvx2",
      "className": "6e B - Anziani"
    }
  }
}